sim/Branch_tb.vcd
$date
	Sun Nov 02 17:41:43 2025
$end
$version
	Icarus Verilog
$end
$timescale
	1s
$end
$scope module Branch_tb $end
$var wire 1 ! NextPCSrc_tb $end
$var reg 5 " BrOp_tb [4:0] $end
$var reg 32 # rs1_tb [31:0] $end
$var reg 32 $ rs2_tb [31:0] $end
$scope module branch_instance $end
$var wire 5 % BrOp [4:0] $end
$var wire 32 & rs1 [31:0] $end
$var wire 32 ' rs2 [31:0] $end
$var wire 1 ( less $end
$var wire 1 ) equal $end
$var reg 1 ! NextPCSrc $end
$upscope $end
$upscope $end
$enddefinitions $end
$comment Show the parameter values. $end
$dumpall
$end
#0
$dumpvars
0)
1(
b1000 '
b100 &
b1000 %
b1000 $
b100 #
b1000 "
0!
$end
#10
1!
1)
0(
b1000 #
b1000 &
#20
1!
b1001 "
b1001 %
0)
b1100 #
b1100 &
#30
0!
1)
b10000 $
b10000 '
b10000 #
b10000 &
#40
1!
b1100 "
b1100 %
b1000 $
b1000 '
0)
1(
b11111111111111111111111111111100 #
b11111111111111111111111111111100 &
#50
0!
b11111111111111111111111111111100 $
b11111111111111111111111111111100 '
0(
b10000 #
b10000 &
#60
b1101 "
b1101 %
1(
b1000 $
b1000 '
b100 #
b100 &
#70
1!
1)
0(
b1000 #
b1000 &
#80
1!
0)
b1100 #
b1100 &
#90
0!
b1110 "
b1110 %
1(
b11111111111111111111111111110100 #
b11111111111111111111111111110100 &
#100
b100 $
b100 '
b11111111111111111111111111111100 #
b11111111111111111111111111111100 &
#110
1!
b11111111111111111111111111110000 $
b11111111111111111111111111110000 '
0)
0(
b100 #
b100 &
#120
0!
b1111 "
b1111 %
b11111111111111111111111111111000 $
b11111111111111111111111111111000 '
#130
1!
1(
b1000 $
b1000 '
0)
b11111111111111111111111111111000 #
b11111111111111111111111111111000 &
#140
1!
b11111111111111111111111111110100 #
b11111111111111111111111111110100 &
#150
1!
b11010 "
b11010 %
#160
1!
b10001 "
b10001 %
